test_designs/counter32/.counter_tb.vcd
$date
	Thu Oct 30 01:59:20 2025
$end
$version
	Icarus Verilog
$end
$timescale
	1s
$end
$scope module tb $end
$var wire 32 ! q_o [31:0] $end
$var reg 1 " clk_i $end
$var reg 1 # en_i $end
$var reg 1 $ rst_i $end
$var integer 32 % i [31:0] $end
$var integer 32 & seed [31:0] $end
$scope module dut $end
$var wire 1 " clk_i $end
$var wire 1 # en_i $end
$var wire 1 $ rst_i $end
$var reg 32 ' q_o [31:0] $end
$upscope $end
$upscope $end
$enddefinitions $end
$comment Show the parameter values. $end
$dumpall
$end
#0
$dumpvars
b0 '
b1111011 &
bx %
1$
0#
0"
b0 !
$end
#1
1#
b100000011010000110000000 &
b0 %
0$
#2
b1 !
b1 '
1"
#3
0"
b10011110100000011101001110000001 &
b1 %
#4
b10 !
b10 '
1"
#5
0"
0#
b1011001001101001110101101001110 &
b10 %
#6
1"
#7
0"
1#
b1010101000010110001101110111 &
b11 %
#8
b11 !
b11 '
1"
#9
0"
b11000110000001011000101001100 &
b100 %
#10
b100 !
b100 '
1"
#11
0"
b1001100100110101101010111011101 &
b101 %
#12
b101 !
b101 '
1"
#13
0"
b1010101101100111101011111010 &
b110 %
#14
b110 !
b110 '
1"
#15
0"
0#
b1010011010110010010110000110011 &
b111 %
#16
1"
#17
0"
1#
b1110001110110011111101111011000 &
b1000 %
#18
b111 !
b111 '
1"
#19
0"
0#
b111001001100001010001111111001 &
b1001 %
#20
1"
#21
0"
b11101000001111111111001101100110 &
b1010 %
#22
1"
#23
0"
1#
b101101111110000001011010101111 &
b1011 %
#24
b1000 !
b1000 '
1"
#25
0"
b1111111100000000000110100100100 &
b1100 %
#26
b1001 !
b1001 '
1"
#27
0"
0#
b10100111010110010101100111010101 &
b1101 %
#28
1"
#29
0"
1#
b11100101111100011100000010010010 &
b1110 %
#30
b1010 !
b1010 '
1"
#31
0"
b101001111100001001111011101011 &
b1111 %
#32
b1011 !
b1011 '
1"
#33
0"
b1101100101011000011000100110000 &
b10000 %
#34
b1100 !
b1100 '
1"
#35
0"
b11110101100100101101001101110001 &
b10001 %
#36
b1101 !
b1101 '
1"
#37
0"
b11101110110000010000111001111110 &
b10010 %
#38
b1110 !
b1110 '
1"
#39
0"
b1100110100110000000011100111 &
b10011 %
#40
b1111 !
b1111 '
1"
#41
0"
b11111100111010100111001111111100 &
b10100 %
#42
b10000 !
b10000 '
1"
#43
0"
b11100011100111101010110011001101 &
b10101 %
#44
b10001 !
b10001 '
1"
#45
0"
b1101000111100100100101010 &
b10110 %
#46
b10010 !
b10010 '
1"
#47
0"
b1101010100010010011100010100011 &
b10111 %
#48
b10011 !
b10011 '
1"
#49
0"
0#
b10000000011001011010000110001000 &
b11000 %
#50
1"
#51
0"
b10011100000111100100000111101001 &
b11001 %
#52
1"
#53
0"
b11001111011111001001110010010110 &
b11010 %
#54
1"
#55
0"
b10111010100110000001000011111 &
b11011 %
#56
1"
#57
0"
1#
b11100110101100110100010111010100 &
b11100 %
#58
b10100 !
b10100 '
1"
#59
0"
b11101111011101010111011000101 &
b11101 %
#60
b10101 !
b10101 '
1"
#61
0"
b11000101110001101111010011000010 &
b11110 %
#62
b10110 !
b10110 '
1"
#63
0"
b1101111100000011101100101011011 &
b11111 %
#64
b10111 !
b10111 '
1"
#65
0"
0#
b10111100010111111010110011100000 &
b100000 %
#66
1"
#67
0"
b1100001010001001100111101100001 &
b100001 %
#68
1"
#69
0"
b110010000000101111110110101110 &
b100010 %
#70
1"
#71
0"
1#
b110000111101001111101001010111 &
b100011 %
#72
b11000 !
b11000 '
1"
#73
0"
0#
b10011111001110011110001010101100 &
b100100 %
#74
1"
#75
0"
1#
b1010100100010010011111110111101 &
b100101 %
#76
b11001 !
b11001 '
1"
#77
0"
b11101001111000011010001101011010 &
b100110 %
#78
b11010 !
b11010 '
1"
#79
0"
0#
b1100010010101010110000100010011 &
b100111 %
#80
1"
#81
0"
b1110101010111111011001100111000 &
b101000 %
#82
1"
#83
0"
1#
b10001100111101000101101111011001 &
b101001 %
#84
b11011 !
b11011 '
1"
#85
0"
0#
b10100100001100001001000111000110 &
b101010 %
#86
1"
#87
0"
b10000100000100011100100110001111 &
b101011 %
#88
1"
#89
0"
b1110011000010011010101010000100 &
b101100 %
#90
1"
#91
0"
1#
b1000110111010100011111110110101 &
b101101 %
#92
b11100 !
b11100 '
1"
#93
0"
b11101110100001100011010011110010 &
b101110 %
#94
b11101 !
b11101 '
1"
#95
0"
0#
b111000110101010111111001011 &
b101111 %
#96
1"
#97
0"
b10111011000101110001010010010000 &
b110000 %
#98
1"
#99
0"
b10010000101101100011101010001 &
b110001 %
#100
1"
#101
0"
1#
b1101011101011011011100011011110 &
b110010 %
#102
b11110 !
b11110 '
1"
#103
0"
0#
b11000101010111100100111111000111 &
b110011 %
#104
1"
#105
0"
b100110010110011111110101011100 &
b110100 %
#106
1"
#107
0"
b1000101010010011000111010101101 &
b110101 %
#108
1"
#109
0"
1#
b11000110110100110000100110001010 &
b110110 %
#110
b11111 !
b11111 '
1"
#111
0"
0#
b11111000000001001010010110000011 &
b110111 %
#112
1"
#113
0"
1#
b1111101101000110011000011101000 &
b111000 %
#114
b100000 !
b100000 '
1"
#115
0"
0#
b10110000100011111000111001001 &
b111001 %
#116
1"
#117
0"
b10000111011011101101001011110110 &
b111010 %
#118
1"
#119
0"
b11100111011010110110110011111111 &
b111011 %
#120
1"
#121
0"
1#
b110010100011100011101100110100 &
b111100 %
#122
b100001 !
b100001 '
1"
#123
0"
0#
b11110000000110110000110010100101 &
b111101 %
#124
1"
#125
0"
1#
b10110001111100101000000100100010 &
b111110 %
#126
b100010 !
b100010 '
1"
#127
0"
b1010000111000100010001000111011 &
b111111 %
#128
b100011 !
b100011 '
1"
#129
0"
0#
b1100011000011010110100001000000 &
b1000000 %
#130
1"
#131
0"
b1101000010001111011101101000001 &
b1000001 %
#132
1"
#133
0"
b11100001001101000100000000001110 &
b1000010 %
#134
1"
#135
0"
b111110001001100000000100110111 &
b1000011 %
#136
1"
#137
0"
1#
b10110011101101011100010000001100 &
b1000100 %
#138
b100100 !
b100100 '
1"
#139
0"
b11100111100011101001100110011101 &
b1000101 %
#140
b100101 !
b100101 '
1"
#141
0"
b1000100100110101111101110111010 &
b1000110 %
#142
b100110 !
b100110 '
1"
#143
0"
b11001010100111100000010111110011 &
b1000111 %
#144
b100111 !
b100111 '
1"
#145
0"
b1001100110010110001101010011000 &
b1001000 %
#146
b101000 !
b101000 '
1"
#147
0"
b11101001100101100000001110111001 &
b1001001 %
#148
b101001 !
b101001 '
1"
#149
0"
0#
b10101111000010100110000000100110 &
b1001010 %
#150
1"
#151
0"
b10010010101101110110001101111 &
b1001011 %
#152
1"
#153
0"
b110000010111111011111100100 &
b1001100 %
#154
1"
#155
0"
b1101011000100000001010110010101 &
b1001101 %
#156
1"
#157
0"
1#
b10100010100011101101100101010010 &
b1001110 %
#158
b101010 !
b101010 '
1"
#159
0"
b1000110101111110011000010101011 &
b1001111 %
#160
b101011 !
b101011 '
1"
#161
0"
0#
b10001101001111011010011111110000 &
b1010000 %
#162
1"
#163
0"
1#
b11100011110101101010101100110001 &
b1010001 %
#164
b101100 !
b101100 '
1"
#165
0"
b100110010011001001100111110 &
b1010010 %
#166
b101101 !
b101101 '
1"
#167
0"
0#
b10100101001000110000111010100111 &
b1010011 %
#168
1"
#169
0"
b10011011110000011011010111100 &
b1010100 %
#170
1"
#171
0"
1#
b11101000110001110110000010001101 &
b1010101 %
#172
b101110 !
b101110 '
1"
#173
0"
0#
b11101000000111000111100111101010 &
b1010110 %
#174
1"
#175
0"
1#
b11001010111010001000001001100011 &
b1010111 %
#176
b101111 !
b101111 '
1"
#177
0"
0#
b11001101001100100111000001001000 &
b1011000 %
#178
1"
#179
0"
b1010001010111111001000110101001 &
b1011001 %
#180
1"
#181
0"
1#
b10010101100101100011100101010110 &
b1011010 %
#182
b110000 !
b110000 '
1"
#183
0"
b10100011100010110100011111011111 &
b1011011 %
#184
b110001 !
b110001 '
1"
#185
0"
0#
b1010001000011011110000010010100 &
b1011100 %
#186
1"
#187
0"
b1111101000110000101101010000101 &
b1011101 %
#188
1"
#189
0"
1#
b11000011100111100011110110000010 &
b1011110 %
#190
b110010 !
b110010 '
1"
#191
0"
0#
b11101100010110001101101100011011 &
b1011111 %
#192
1"
#193
0"
b10100001011000101101001110100000 &
b1100000 %
#194
1"
#195
0"
1#
b10100100000101001011100100001 &
b1100001 %
#196
b110011 !
b110011 '
1"
#197
0"
0#
b10100101011000001011001001101110 &
b1100010 %
#198
1"
#199
0"
1#
b1001111011000111100000010111 &
b1100011 %
#200
b110100 !
b110100 '
1"
#201
0"
b1101100100011000101010101101100 &
b1100100 %
#202
b110101 !
b110101 '
1"
#203
0"
0#
b1100010001000101110001101111101 &
b1100101 %
#204
1"
#205
0"
1#
b111110111110101000010000011010 &
b1100110 %
#206
b110110 !
b110110 '
1"
#207
0"
0#
b10101011011010110001101011010011 &
b1100111 %
#208
1"
#209
0"
1#
b11001111111101000011000111111000 &
b1101000 %
#210
b110111 !
b110111 '
1"
#211
0"
0#
b11111000011011001101110011001 &
b1101001 %
#212
1"
#213
0"
b101010011001010101111010000110 &
b1101010 %
#214
1"
#215
0"
b1110111011111110111111101001111 &
b1101011 %
#216
1"
#217
0"
1#
b10101001110111101111010101000100 &
b1101100 %
#218
b111000 !
b111000 '
1"
#219
0"
0#
b1001111010000101101101101110101 &
b1101101 %
#220
1"
#221
0"
b10111001001000111010110110110010 &
b1101110 %
#222
1"
#223
0"
b10111111000101100010000110001011 &
b1101111 %
#224
1"
#225
0"
1#
b1000101111101111110101101010000 &
b1110000 %
#226
b111001 !
b111001 '
1"
#227
0"
b10001001110010100111111100010001 &
b1110001 %
#228
b111010 !
b111010 '
1"
#229
0"
b11110101011001001110110011110 &
b1110010 %
#230
b111011 !
b111011 '
1"
#231
0"
b11110001110110010011110110000111 &
b1110011 %
#232
b111100 !
b111100 '
1"
#233
0"
b11110000100111010010000000011100 &
b1110100 %
#234
b111101 !
b111101 '
1"
#235
0"
b11001000100100000010001001101101 &
b1110101 %
#236
b111110 !
b111110 '
1"
#237
0"
b1111100110000001101001001010 &
b1110110 %
#238
b111111 !
b111111 '
1"
#239
0"
0#
b1010000011011001100111101000011 &
b1110111 %
#240
1"
#241
0"
1#
b10111100111010110101111110101000 &
b1111000 %
#242
b1000000 !
b1000000 '
1"
#243
0"
b10011011111111110010000110001001 &
b1111001 %
#244
b1000001 !
b1000001 '
1"
#245
0"
b1100010101100111110110110 &
b1111010 %
#246
b1000010 !
b1000010 '
1"
#247
0"
0#
b11000011010101001001010111111 &
b1111011 %
#248
1"
#249
0"
1#
b10001001100010100011010111110100 &
b1111100 %
#250
b1000011 !
b1000011 '
1"
#251
0"
0#
b1011110010111101001100001100101 &
b1111101 %
#252
1"
#253
0"
1#
b11110111111000100010100111100010 &
b1111110 %
#254
b1000100 !
b1000100 '
1"
#255
0"
0#
b100110000111100000001111111011 &
b1111111 %
#256
1"
#257
0"
b10000001101111110111100000000 &
b10000000 %
#258
1"
#259
0"
1#
b11000010111011010110001100000001 &
b10000001 %
#260
b1000101 !
b1000101 '
1"
#261
0"
0#
b10001001001000000101010011001110 &
b10000010 %
#262
1"
#263
0"
b11001000000000000101111011110111 &
b10000011 %
#264
1"
#265
0"
b10001100000101011001011011001100 &
b10000100 %
#266
1"
#267
0"
1#
b11011100101111100001110101011101 &
b10000101 %
#268
b1000110 !
b1000110 '
1"
#269
0"
0#
b10001001000110000011110001111010 &
b10000110 %
#270
1"
#271
0"
1#
b111111111101001001111110110011 &
b10000111 %
#272
b1000111 !
b1000111 '
1"
#273
0"
b1000010101100101111100101011000 &
b10001000 %
#274
b1001000 !
b1001000 '
1"
#275
0"
0#
b1111001010100110010001101111001 &
b10001001 %
#276
1"
#277
0"
1#
b10000011110110011000110011100110 &
b10001010 %
#278
b1001001 !
b1001001 '
1"
#279
0"
0#
b101110010000111000001000101111 &
b10001011 %
#280
1"
#281
0"
1#
b11111011110110101010001010100100 &
b10001100 %
#282
b1001010 !
b1001010 '
1"
#283
0"
b1101010111110101001000101010101 &
b10001101 %
#284
b1001011 !
b1001011 '
1"
#285
0"
0#
b11110101010111001011001000010010 &
b10001110 %
#286
1"
#287
0"
b11100010010101111000001001101011 &
b10001111 %
#288
1"
#289
0"
b110100000111011101111010110000 &
b10010000 %
#290
1"
#291
0"
1#
b11110111010100100001011110001 &
b10010001 %
#292
b1001100 !
b1001100 '
1"
#293
0"
b11101001111011101101011111111110 &
b10010010 %
#294
b1001101 !
b1001101 '
1"
#295
0"
0#
b1001101001110001101110001100111 &
b10010011 %
#296
1"
#297
0"
b10010110001000001011100101111100 &
b10010100 %
#298
1"
#299
0"
b10011011000110111101010001001101 &
b10010101 %
#300
1"
#301
0"
b1110011010111011110101010101010 &
b10010110 %
#302
1"
#303
0"
1#
b10001110010011000110000100011 &
b10010111 %
#304
b1001110 !
b1001110 '
1"
#305
0"
b110101001011111111100001000 &
b10011000 %
#306
b1001111 !
b1001111 '
1"
#307
0"
b10111111111010001010000101101001 &
b10011001 %
#308
b1010000 !
b1010000 '
1"
#309
0"
b11110111001001001011000010110 &
b10011010 %
#310
b1010001 !
b1010001 '
1"
#311
0"
b11101110110000010100110110011111 &
b10011011 %
#312
b1010010 !
b1010010 '
1"
#313
0"
0#
b1001111010110110011101101010100 &
b10011100 %
#314
1"
#315
0"
b1101001011001011100011001000101 &
b10011101 %
#316
1"
#317
0"
1#
b1010111110101100100011001000010 &
b10011110 %
#318
b1010011 !
b1010011 '
1"
#319
0"
0#
b1111110011010011001110011011011 &
b10011111 %
#320
1"
#321
0"
b110100011001001011101001100000 &
b10100000 %
#322
1"
#323
0"
1#
b11001100100000000001111011100001 &
b10100001 %
#324
b1010100 !
b1010100 '
1"
#325
0"
0#
b1100011000010110010011100101110 &
b10100010 %
#326
1"
#327
0"
b1000000110011011010111010111 &
b10100011 %
#328
1"
#329
0"
1#
b10000000101010011000100000101100 &
b10100100 %
#330
b1010101 !
b1010101 '
1"
#331
0"
b101011110110000100011100111101 &
b10100101 %
#332
b1010110 !
b1010110 '
1"
#333
0"
0#
b1011111000011000010010011011010 &
b10100110 %
#334
1"
#335
0"
b11011111011100101001010010010011 &
b10100111 %
#336
1"
#337
0"
1#
b1010100110111110111000010111000 &
b10101000 %
#338
b1010111 !
b1010111 '
1"
#339
0"
0#
b11000000010111101001101101011001 &
b10101001 %
#340
1"
#341
0"
1#
b1110100111111101110101101000110 &
b10101010 %
#342
b1011000 !
b1011000 '
1"
#343
0"
0#
b10001101010110101111010100001111 &
b10101011 %
#344
1"
#345
0"
b11000101010101110000000000000100 &
b10101100 %
#346
1"
#347
0"
1#
b1110001101011110011011100110101 &
b10101101 %
#348
b1011001 !
b1011001 '
1"
#349
0"
0#
b100110010100011110011001110010 &
b10101110 %
#350
1"
#351
0"
1#
b10111110101110110101001101001011 &
b10101111 %
#352
b1011010 !
b1011010 '
1"
#353
0"
b10010010100001111000001000010000 &
b10110000 %
#354
b1011011 !
b1011011 '
1"
#355
0"
0#
b10111010001011011111011011010001 &
b10110001 %
#356
1"
#357
0"
b1100011001010000100001001011110 &
b10110010 %
#358
1"
#359
0"
1#
b10110100111110011110101101000111 &
b10110011 %
#360
b1011100 !
b1011100 '
1"
#361
0"
0#
b10001000010110110000001011011100 &
b10110100 %
#362
1"
#363
0"
1#
b11010010111000100111011000101101 &
b10110101 %
#364
b1011101 !
b1011101 '
1"
#365
0"
b11010101100001011110101100001010 &
b10110110 %
#366
b1011110 !
b1011110 '
1"
#367
0"
0#
b10110100001101101011100100000011 &
b10110111 %
#368
1"
#369
0"
b11010000001110100100111001101000 &
b10111000 %
#370
1"
#371
0"
b11000101000001000101001001 &
b10111001 %
#372
1"
#373
0"
b10001101001110111000110001110110 &
b10111010 %
#374
1"
#375
0"
b10101011010001110111100001111111 &
b10111011 %
#376
1"
#377
0"
1#
b1000001110110001111000010110100 &
b10111100 %
#378
b1011111 !
b1011111 '
1"
#379
0"
b10101111101001011110010000100101 &
b10111101 %
#380
b1100000 !
b1100000 '
1"
#381
0"
b11111000100100101001001010100010 &
b10111110 %
#382
b1100001 !
b1100001 '
1"
#383
0"
0#
b10001011100111010010110111011 &
b10111111 %
#384
1"
#385
0"
1#
b1111110110000010011010111000000 &
b11000000 %
#386
b1100010 !
b1100010 '
1"
#387
0"
0#
b10000110001100101100101011000001 &
b11000001 %
#388
1"
#389
0"
1#
b11010101101110010010100110001110 &
b11000010 %
#390
b1100011 !
b1100011 '
1"
#391
0"
b10110101111100000111110010110111 &
b11000011 %
#392
b1100100 !
b1100100 '
1"
#393
0"
b1100100101000000010100110001100 &
b11000100 %
#394
b1100101 !
b1100101 '
1"
#395
0"
b11011111111010010110000100011101 &
b11000101 %
#396
b1100110 !
b1100110 '
1"
#397
0"
b10001000111011100011110100111010 &
b11000110 %
#398
b1100111 !
b1100111 '
1"
#399
0"
0#
b11111101000111001111100101110011 &
b11000111 %
#400
1"
#401
0"
b100010010100011001100000011000 &
b11001000 %
#402
1"
#403
0"
b111000001010000000001100111001 &
b11001001 %
#404
1"
#405
0"
b11011011010111100110100110 &
b11001010 %
#406
1"
#407
0"
b11000111011111011101011111101111 &
b11001011 %
#408
1"
#409
0"
1#
b11111011101011000000110101100100 &
b11001100 %
#410
b1101000 !
b1101000 '
1"
#411
0"
b1010010110110001100110100010101 &
b11001101 %
#412
b1101001 !
b1101001 '
1"
#413
0"
0#
b100111000110110100101011010010 &
b11001110 %
#414
1"
#415
0"
b11111110011110011001010000101011 &
b11001111 %
#416
1"
#417
0"
b10001000000011001101010101110000 &
b11010000 %
#418
1"
#419
0"
1#
b1101110100011011001101010110001 &
b11010001 %
#420
b1101010 !
b1101010 '
1"
#421
0"
b1010010111100001101110010111110 &
b11010010 %
#422
b1101011 !
b1101011 '
1"
#423
0"
b10000010110101000110101000100111 &
b11010011 %
#424
b1101100 !
b1101100 '
1"
#425
0"
b11110111101000111111110000111100 &
b11010100 %
#426
b1101101 !
b1101101 '
1"
#427
0"
0#
b10011110010111000000100000001101 &
b11010101 %
#428
1"
#429
0"
b10000100001010000001101101101010 &
b11010110 %
#430
1"
#431
0"
1#
b11111000111011000101010111100011 &
b11010111 %
#432
b1101110 !
b1101110 '
1"
#433
0"
b10101011100000000100110111001000 &
b11011000 %
#434
b1101111 !
b1101111 '
1"
#435
0"
0#
b100111011110010111000100101001 &
b11011001 %
#436
1"
#437
0"
b111000001001111011001011010110 &
b11011010 %
#438
1"
#439
0"
1#
b10101110101101010001001101011111 &
b11011011 %
#440
b1110000 !
b1110000 '
1"
#441
0"
0#
b101100010110110101011000010100 &
b11011100 %
#442
1"
#443
0"
1#
b1111110100101101111001000000101 &
b11011101 %
#444
b1110001 !
b1110001 '
1"
#445
0"
0#
b11111011001011110000111100000010 &
b11011110 %
#446
1"
#447
0"
b10010111011101000001111010011011 &
b11011111 %
#448
1"
#449
0"
b1001100001001010110000100100000 &
b11100000 %
#450
1"
#451
0"
1#
b1000000111111010110011010100001 &
b11100001 %
#452
b1110010 !
b1110010 '
1"
#453
0"
b1001111110000100101101111101110 &
b11100010 %
#454
b1110011 !
b1110011 '
1"
#455
0"
0#
b11001001111001011001110010111 &
b11100011 %
#456
1"
#457
0"
b11111110010100010111101011101100 &
b11100100 %
#458
1"
#459
0"
b1000101011010010110101011111101 &
b11100101 %
#460
1"
#461
0"
1#
b1011010110101101000010110011010 &
b11100110 %
#462
b1110100 !
b1110100 '
1"
#463
0"
0#
b101000001010111100111001010011 &
b11100111 %
#464
1"
#465
0"
1#
b110010111000010110111101111000 &
b11101000 %
#466
b1110101 !
b1110101 '
1"
#467
0"
b10100000101001110101101100011001 &
b11101001 %
#468
b1110110 !
b1110110 '
1"
#469
0"
b10000000101111010011100000000110 &
b11101010 %
#470
b1110111 !
b1110111 '
1"
#471
0"
0#
b11101011011001000010101011001111 &
b11101011 %
#472
1"
#473
0"
b11000000001100011100101011000100 &
b11101100 %
#474
1"
#475
0"
1#
b111001111011110101001011110101 &
b11101101 %
#476
b1111000 !
b1111000 '
1"
#477
0"
b11011110110100001101111100110010 &
b11101110 %
#478
b1111001 !
b1111001 '
1"
#479
0"
b11100111110010100100010100001011 &
b11101111 %
#480
b1111010 !
b1111010 '
1"
#481
0"
b100111100001011101100011010000 &
b11110000 %
#482
b1111011 !
b1111011 '
1"
#483
0"
0#
b1001011000000010010111010010001 &
b11110001 %
#484
1"
#485
0"
1#
b1001101111000001010011100011110 &
b11110010 %
#486
b1111100 !
b1111100 '
1"
#487
0"
b1101100100000000101100100000111 &
b11110011 %
#488
b1111101 !
b1111101 '
1"
#489
0"
0#
b11000000010100111010010110011100 &
b11110100 %
#490
1"
#491
0"
b11101000000000001000100111101101 &
b11110101 %
#492
1"
#493
0"
b1011001010111000111101111001010 &
b11110110 %
#494
1"
#495
0"
b10111101001000100110001011000011 &
b11110111 %
#496
1"
#497
0"
b10010110010011111111110100101000 &
b11111000 %
#498
1"
#499
0"
b1101011000100001100000100001001 &
b11111001 %
#500
1"
#501
0"
b1010111010000010000100100110110 &
b11111010 %
#502
1"
#503
0"
1#
b110101110000100001111000111111 &
b11111011 %
#504
b1111110 !
b1111110 '
1"
#505
0"
0#
b110001110100110101101110100 &
b11111100 %
#506
1"
#507
0"
1#
b1011111101100001110111111100101 &
b11111101 %
#508
b1111111 !
b1111111 '
1"
#509
0"
b10001100110000111011101101100010 &
b11111110 %
#510
b10000000 !
b10000000 '
1"
#511
0"
b1100100101000110000011101111011 &
b11111111 %
#512
b10000001 !
b10000001 '
1"
#513
0"
0#
b11100101011010010011110010000000 &
b100000000 %
#514
1"
#515
0"
1#
b1001001110101111111001010000001 &
b100000001 %
#516
b10000010 !
b10000010 '
1"
#517
0"
b1011101111101011111001001110 &
b100000010 %
#518
b10000011 !
b10000011 '
1"
#519
0"
b11010101101101100101101001110111 &
b100000011 %
#520
b10000100 !
b10000100 '
1"
#521
0"
0#
b11000000000101010111110001001100 &
b100000100 %
#522
1"
#523
0"
1#
b1100100110100000110010011011101 &
b100000101 %
#524
b10000101 !
b10000101 '
1"
#525
0"
b10110100110111001111110111111010 &
b100000110 %
#526
b10000110 !
b10000110 '
1"
#527
0"
b1011110101110001001100110011 &
b100000111 %
#528
b10000111 !
b10000111 '
1"
#529
0"
0#
b1111010011001101111011011011000 &
b100001000 %
#530
1"
#531
0"
1#
b110101110101001010001011111001 &
b100001001 %
#532
b10001000 !
b10001000 '
1"
#533
0"
b10001010100001100010011001100110 &
b100001010 %
#534
b10001001 !
b10001001 '
1"
#535
0"
b11100011110001011110110110101111 &
b100001011 %
#536
b10001010 !
b10001010 '
1"
#537
0"
0#
b1100000010000000011100000100100 &
b100001100 %
#538
1"
#539
0"
b10001110011010101100100011010101 &
b100001101 %
#540
1"
#541
0"
1#
b1000000100010101010001110010010 &
b100001110 %
#542
b10001011 !
b10001011 '
1"
#543
0"
b1011100111001010110010111101011 &
b100001111 %
#544
b10001100 !
b10001100 '
1"
#545
0"
b1101111110010101000110000110000 &
b100010000 %
#546
b10001101 !
b10001101 '
1"
#547
0"
b1011010100000001011001001110001 &
b100010001 %
#548
b10001110 !
b10001110 '
1"
#549
0"
b10110100100011111010000101111110 &
b100010010 %
#550
b10001111 !
b10001111 '
1"
#551
0"
b10000011101101011011011111100111 &
b100010011 %
#552
b10010000 !
b10010000 '
1"
#553
0"
b1101010110000011111111011111100 &
b100010100 %
#554
b10010001 !
b10010001 '
1"
#555
0"
0#
b1010110010001111111101111001101 &
b100010101 %
#556
1"
#557
0"
b10111011001110110000110000101010 &
b100010110 %
#558
1"
#559
0"
b11111010000100001101111110100011 &
b100010111 %
#560
1"
#561
0"
1#
b11111010100000010101110010001000 &
b100011000 %
#562
b10010010 !
b10010010 '
1"
#563
0"
b10000111110100100000000011101001 &
b100011001 %
#564
b10010011 !
b10010011 '
1"
#565
0"
0#
b1101110000111111000111110010110 &
b100011010 %
#566
1"
#567
0"
b1011001001001101001100100011111 &
b100011011 %
#568
1"
#569
0"
1#
b11110010110011100011000011010100 &
b100011100 %
#570
b10010100 !
b10010100 '
1"
#571
0"
0#
b11000011010111101110111000101 &
b100011101 %
#572
1"
#573
0"
b11100110011010001001011111000010 &
b100011110 %
#574
1"
#575
0"
b1101001001110000110000001011011 &
b100011111 %
#576
1"
#577
0"
b1111111011001001100011111100000 &
b100100000 %
#578
1"
#579
0"
1#
b11101001101110100110111001100001 &
b100100001 %
#580
b10010101 !
b10010101 '
1"
#581
0"
0#
b10000010001100101000010101110 &
b100100010 %
#582
1"
#583
0"
b11101011000101010111000101010111 &
b100100011 %
#584
1"
#585
0"
b11001000010001000010110110101100 &
b100100100 %
#586
1"
#587
0"
1#
b10100101100100111010111101 &
b100100101 %
#588
b10010110 !
b10010110 '
1"
#589
0"
0#
b11000110011010011001011010 &
b100100110 %
#590
1"
#591
0"
b1101111010101101100100000010011 &
b100100111 %
#592
1"
#593
0"
1#
b1011000101110100010111000111000 &
b100101000 %
#594
b10010111 !
b10010111 '
1"
#595
0"
b10101111101001111101101011011001 &
b100101001 %
#596
b10011000 !
b10011000 '
1"
#597
0"
0#
b1010011000000100010011000110 &
b100101010 %
#598
1"
#599
0"
b1110111010110110010000010001111 &
b100101011 %
#600
1"
#601
0"
b1010101001011110101010110000100 &
b100101100 %
#602
1"
#603
0"
1#
b11110011110000110010111010110101 &
b100101101 %
#604
b10011001 !
b10011001 '
1"
#605
0"
0#
b1001011011000001001011111110010 &
b100101110 %
#606
1"
#607
0"
b11011100000000101111011011001011 &
b100101111 %
#608
1"
#609
0"
1#
b1001011101100101110111110010000 &
b100110000 %
#610
b10011010 !
b10011010 '
1"
#611
0"
0#
b10100100000001000010011001010001 &
b100110001 %
#612
1"
#613
0"
1#
b10110011100101011100101111011110 &
b100110010 %
#614
b10011011 !
b10011011 '
1"
#615
0"
0#
b110110001011001000011011000111 &
b100110011 %
#616
1"
#617
0"
b101011010001110000100001011100 &
b100110100 %
#618
1"
#619
0"
1#
b1001011101010100101110110101101 &
b100110101 %
#620
b10011100 !
b10011100 '
1"
#621
0"
b10011011110110111100110010001010 &
b100110110 %
#622
b10011101 !
b10011101 '
1"
#623
0"
b11000100111011111100110010000011 &
b100110111 %
#624
b10011110 !
b10011110 '
1"
#625
0"
b10101101111011000110101111101000 &
b100111000 %
#626
b10011111 !
b10011111 '
1"
#627
0"
b10110011101101010011000011001001 &
b100111001 %
#628
b10100000 !
b10100000 '
1"
#629
0"
0#
b1001100010110110100010111110110 &
b100111010 %
#630
1"
#631
0"
1#
b1101100110101000001111111111 &
b100111011 %
#632
b10100001 !
b10100001 '
1"
#633
0"
0#
b1000001011011101010011000110100 &
b100111100 %
#634
1"
#635
0"
b10101010001111111011101110100101 &
b100111101 %
#636
1"
#637
0"
b1001101001101011010010000100010 &
b100111110 %
#638
1"
#639
0"
b110001011011000010100100111011 &
b100111111 %
#640
1"
#641
0"
1#
b111010111100000000001101000000 &
b101000000 %
#642
b10100010 !
b10100010 '
1"
#643
0"
b1100101100111001101101001000001 &
b101000001 %
#644
b10100011 !
b10100011 '
1"
#645
0"
b101111111100010001001100001110 &
b101000010 %
#646
b10100100 !
b10100100 '
1"
#647
0"
0#
b10110101000100011111100000110111 &
b101000011 %
#648
1"
#649
0"
b11100001001101011000111100001100 &
b101000100 %
#650
1"
#651
0"
b10011111001100110010100010011101 &
b101000101 %
#652
1"
#653
0"
1#
b111101101001000111111010111010 &
b101000110 %
#654
b10100101 !
b10100101 '
1"
#655
0"
b110101111000101110110011110011 &
b101000111 %
#656
b10100110 !
b10100110 '
1"
#657
0"
b10011001101100110001010110011000 &
b101001000 %
#658
b10100111 !
b10100111 '
1"
#659
0"
0#
b1000010000110010000001010111001 &
b101001001 %
#660
1"
#661
0"
1#
b110101111000111001001100100110 &
b101001010 %
#662
b10101000 !
b10101000 '
1"
#663
0"
b1001000110110111100001101101111 &
b101001011 %
#664
b10101001 !
b10101001 '
1"
#665
0"
0#
b1000100010101110010001011100100 &
b101001100 %
#666
1"
#667
0"
b1001001011100001000010010010101 &
b101001101 %
#668
1"
#669
0"
b1010011010101011110001010010 &
b101001110 %
#670
1"
#671
0"
b1111111010110101111011110101011 &
b101001111 %
#672
1"
#673
0"
b10010010000101110000001011110000 &
b101010000 %
#674
1"
#675
0"
1#
b101010100000111000101000110001 &
b101010001 %
#676
b10101010 !
b10101010 '
1"
#677
0"
b1000011100010110010011000111110 &
b101010010 %
#678
b10101011 !
b10101011 '
1"
#679
0"
b1001101100111001100010110100111 &
b101010011 %
#680
b10101100 !
b10101100 '
1"
#681
0"
0#
b11100010001110101100000110111100 &
b101010100 %
#682
1"
#683
0"
1#
b11100110100111111010111110001101 &
b101010101 %
#684
b10101101 !
b10101101 '
1"
#685
0"
0#
b1111001010101101011110011101010 &
b101010110 %
#686
1"
#687
0"
1#
b1001110111101110010100101100011 &
b101010111 %
#688
b10101110 !
b10101110 '
1"
#689
0"
0#
b11110010011010010010101101001000 &
b101011000 %
#690
1"
#691
0"
1#
b10100000101100100101000010101001 &
b101011001 %
#692
b10101111 !
b10101111 '
1"
#693
0"
b1101100011000010110001010110 &
b101011010 %
#694
b10110000 !
b10110000 '
1"
#695
0"
b100011110101011101111011011111 &
b101011011 %
#696
b10110001 !
b10110001 '
1"
#697
0"
0#
b1101101011100111100101110010100 &
b101011100 %
#698
1"
#699
0"
1#
b1010010101001001000100110000101 &
b101011101 %
#700
b10110010 !
b10110010 '
1"
#701
0"
0#
b10010010000101110000010000010 &
b101011110 %
#702
1"
#703
0"
b11100101011101100110001000011011 &
b101011111 %
