test_designs/mux/.pmux_tb.vcd
$date
	Mon Oct 27 19:23:29 2025
$end
$version
	Icarus Verilog
$end
$timescale
	1s
$end
$scope module tb $end
$var wire 32 ! Y [31:0] $end
$var reg 32 " A [31:0] $end
$var reg 32 # B [31:0] $end
$var reg 32 $ C [31:0] $end
$var reg 32 % S [31:0] $end
$var integer 32 & i [31:0] $end
$var integer 32 ' seed [31:0] $end
$scope module dut $end
$var wire 32 ( A [31:0] $end
$var wire 32 ) B [31:0] $end
$var wire 32 * C [31:0] $end
$var wire 32 + S [31:0] $end
$var reg 32 , Y [31:0] $end
$upscope $end
$upscope $end
$enddefinitions $end
$comment Show the parameter values. $end
$dumpall
$end
#0
$dumpvars
b10000000100000011010001000000001 ,
b10001010101000010110010000010101 +
b11011001001101001110110010110010 *
b11110100000011101010100111101 )
b10000000100000011010001000000001 (
b1010101000010110001101110111 '
b0 &
b10001010101000010110010000010101 %
b11011001001101001110110010110010 $
b11110100000011101010100111101 #
b10000000100000011010001000000001 "
b10000000100000011010001000000001 !
$end
#1
b11001100100110101101011010011001 !
b11001100100110101101011010011001 ,
b11010011010110010010111010100110 %
b11010011010110010010111010100110 +
b10001010101101100111110000010101 $
b10001010101101100111110000010101 *
b11001100100110101101011010011001 #
b11001100100110101101011010011001 )
b10011000110000001011001000110001 "
b10011000110000001011001000110001 (
b1010011010110010010110000110011 '
b1 &
#2
b11110001110110011111110011100011 !
b11110001110110011111110011100011 ,
b10101101111110000001100001011011 %
b10101101111110000001100001011011 +
b1101000001111111111010111010000 $
b1101000001111111111010111010000 *
b10111001001100001010010001110010 #
b10111001001100001010010001110010 )
b11110001110110011111110011100011 "
b11110001110110011111110011100011 (
b101101111110000001011010101111 '
b10 &
#3
b11111111100000000000111011111111 !
b11111111100000000000111011111111 ,
b10101001111100001010000001010011 %
b10101001111100001010000001010011 +
b1100101111100011100001111001011 $
b1100101111100011100001111001011 *
b100111010110010101101101001110 #
b100111010110010101101101001110 )
b11111111100000000000111011111111 "
b11111111100000000000111011111111 (
b101001111100001001111011101011 '
b11 &
#4
b11101100101011000011001011011001 !
b11101100101011000011001011011001 ,
b10001100110100110000001000011001 %
b10001100110100110000001000011001 +
b1101110110000010001000111011101 $
b1101110110000010001000111011101 *
b1110101100100101101010111101011 #
b1110101100100101101010111101011 )
b11101100101011000011001011011001 "
b11101100101011000011001011011001 (
b1100110100110000000011100111 '
b100 &
#5
b1111100111010100111010111111001 !
b1111100111010100111010111111001 ,
b11101010100010010011101011010101 %
b11101010100010010011101011010101 +
b10000001101000111100101000000011 $
b10000001101000111100101000000011 *
b1100011100111101010111111000111 #
b1100011100111101010111111000111 )
b1111100111010100111010111111001 "
b1111100111010100111010111111001 (
b1101010100010010011100010100011 '
b101 &
#6
b11100000111100100001100111000 !
b11100000111100100001100111000 ,
b10010111010100110000010000101110 %
b10010111010100110000010000101110 +
b1001111011111001001111110011110 $
b1001111011111001001111110011110 *
b11100000111100100001100111000 #
b11100000111100100001100111000 )
b11001011010001100000000 "
b11001011010001100000000 (
b10111010100110000001000011111 '
b110 &
#7
b1100110101100110100011111001101 !
b1100110101100110100011111001101 ,
b11101111100000011101101011011111 %
b11101111100000011101101011011111 +
b1000101110001101111011110001011 $
b1000101110001101111011110001011 *
b10011101111011101011000000111011 #
b10011101111011101011000000111011 )
b1100110101100110100011111001101 "
b1100110101100110100011111001101 (
b1101111100000011101100101011011 '
b111 &
#8
b111100010111111010111101111000 !
b111100010111111010111101111000 ,
b10110000111101001111110001100001 %
b10110000111101001111110001100001 +
b10110010000000101111111001100100 $
b10110010000000101111111001100100 *
b11100001010001001101000011000010 #
b11100001010001001101000011000010 )
b111100010111111010111101111000 "
b111100010111111010111101111000 (
b110000111101001111101001010111 '
b1000 &
#9
b1101001111000011010010111010011 !
b1101001111000011010010111010011 ,
b11100010010101010110001011000100 %
b11100010010101010110001011000100 +
b1101001111000011010010111010011 $
b1101001111000011010010111010011 *
b11010100100010010100000010101001 #
b11010100100010010100000010101001 )
b11111001110011110010100111110 "
b11111001110011110010100111110 (
b1100010010101010110000100010011 '
b1001 &
#10
b100100001100001001001101001000 !
b100100001100001001001101001000 ,
b100000100011100101100001000 %
b100000100011100101100001000 +
b100100001100001001001101001000 $
b100100001100001001001101001000 *
b1100111101000101110100011001 #
b1100111101000101110100011001 )
b11110101010111111011010011101010 "
b11110101010111111011010011101010 (
b10000100000100011100100110001111 '
b1010 &
#11
b11000110111010100100000010001101 !
b11000110111010100100000010001101 ,
b10000111000110101011000000001110 %
b10000111000110101011000000001110 +
b1101110100001100011011111011101 $
b1101110100001100011011111011101 *
b11000110111010100100000010001101 #
b11000110111010100100000010001101 )
b11110011000010011010110011100110 "
b11110011000010011010110011100110 (
b111000110101010111111001011 '
b1011 &
#12
b10010010000101101100100000100100 !
b10010010000101101100100000100100 ,
b1000101010111100101000110001010 %
b1000101010111100101000110001010 +
b11101011101011011011101011010111 $
b11101011101011011011101011010111 *
b10010010000101101100100000100100 #
b10010010000101101100100000100100 )
b111011000101110001011101110110 "
b111011000101110001011101110110 (
b11000101010111100100111111000111 '
b1100 &
#13
b1000110110100110000101110001101 !
b1000110110100110000101110001101 ,
b1111000000001001010011111110000 %
b1111000000001001010011111110000 +
b1000110110100110000101110001101 $
b1000110110100110000101110001101 *
b11000101010010011001000010001010 #
b11000101010010011001000010001010 )
b10100110010110011111111001001100 "
b10100110010110011111111001001100 (
b11111000000001001010010110000011 '
b1101 &
#14
b10010110000100011111001000101100 !
b10010110000100011111001000101100 ,
b1100111011010110110111111001110 %
b1100111011010110110111111001110 +
b111011011101101010100001110 $
b111011011101101010100001110 *
b10010110000100011111001000101100 #
b10010110000100011111001000101100 )
b11111101101000110011001011111011 "
b11111101101000110011001011111011 (
b11100111011010110110110011111111 '
b1110 &
#15
b10110010100011100011110001100101 !
b10110010100011100011110001100101 ,
b11010000111000100010010010100001 %
b11010000111000100010010010100001 +
b110001111100101000001101100011 $
b110001111100101000001101100011 *
b1110000000110110000111111100000 #
b1110000000110110000111111100000 )
b10110010100011100011110001100101 "
b10110010100011100011110001100101 (
b1010000111000100010001000111011 '
b1111 &
#16
b1100001001101000100001111000010 !
b1100001001101000100001111000010 ,
b10111110001001100000001001111100 %
b10111110001001100000001001111100 +
b1100001001101000100001111000010 $
b1100001001101000100001111000010 *
b11101000010001111011110011010000 #
b11101000010001111011110011010000 )
b11100011000011010110101011000110 "
b11100011000011010110101011000110 (
b111110001001100000000100110111 '
b10000 &
#17
b110011101101011100011101100111 !
b110011101101011100011101100111 ,
b1001010100111100000011110010101 %
b1001010100111100000011110010101 +
b11000100100110101111110010001001 $
b11000100100110101111110010001001 *
b1100111100011101001101111001111 #
b1100111100011101001101111001111 )
b110011101101011100011101100111 "
b110011101101011100011101100111 (
b11001010100111100000010111110011 '
b10001 &
#18
b101111000010100110001101011110 !
b101111000010100110001101011110 ,
b10010010010101101110111000100100 %
b10010010010101101110111000100100 +
b101111000010100110001101011110 $
b101111000010100110001101011110 *
b1101001100101100000010111010011 #
b1101001100101100000010111010011 )
b11001100110010110001110010011001 "
b11001100110010110001110010011001 (
b10010010101101110110001101111 '
b10010 &
#19
b10000110000010111111100000001100 !
b10000110000010111111100000001100 ,
b11000110101111110011001010001101 %
b11000110101111110011001010001101 +
b100010100011101101101101000101 $
b100010100011101101101101000101 *
b11101011000100000001011011010110 #
b11101011000100000001011011010110 )
b10000110000010111111100000001100 "
b10000110000010111111100000001100 (
b1000110101111110011000010101011 '
b10011 &
#20
b1100011110101101010110111000111 !
b1100011110101101010110111000111 ,
b100101001000110001000101001010 %
b100101001000110001000101001010 +
b10000100110010011001010000001001 $
b10000100110010011001010000001001 *
b1100011110101101010110111000111 #
b1100011110101101010110111000111 )
b1101001111011010100100011010 "
b1101001111011010100100011010 (
b10100101001000110000111010100111 '
b10100 &
#21
b10010011011110000011100000100110 !
b10010011011110000011100000100110 ,
b1001010111010001000010110010101 %
b1001010111010001000010110010101 +
b1101000000111000111101111010000 $
b1101000000111000111101111010000 *
b1101000110001110110001111010001 #
b1101000110001110110001111010001 )
b10010011011110000011100000100110 "
b10010011011110000011100000100110 (
b11001010111010001000001001100011 '
b10101 &
#22
b1001101001100100111001110011010 !
b1001101001100100111001110011010 ,
b100011100010110100100101000111 %
b100011100010110100100101000111 +
b10101100101100011101100101011 $
b10101100101100011101100101011 *
b11010001010111111001001010100010 #
b11010001010111111001001010100010 )
b1001101001100100111001110011010 "
b1001101001100100111001110011010 (
b10100011100010110100011111011111 '
b10110 &
#23
b1000011100111100011111110000111 !
b1000011100111100011111110000111 ,
b1101100010110001101110111011000 %
b1101100010110001101110111011000 +
b1000011100111100011111110000111 $
b1000011100111100011111110000111 *
b11111101000110000101110011111010 #
b11111101000110000101110011111010 )
b11010001000011011110001010100010 "
b11010001000011011110001010100010 (
b11101100010110001101101100011011 '
b10111 &
#24
b100001011000101101010101000010 !
b100001011000101101010101000010 ,
b10001001111011000111101000010011 %
b10001001111011000111101000010011 +
b100101011000001011010101001010 $
b100101011000001011010101001010 *
b10010100100000101001100000101001 #
b10010100100000101001100000101001 )
b100001011000101101010101000010 "
b100001011000101101010101000010 (
b1001111011000111100000010111 '
b11000 &
#25
b11100010001000101110010011000100 !
b11100010001000101110010011000100 ,
b101011011010110001110101010110 %
b101011011010110001110101010110 +
b10111110111110101000011001111101 $
b10111110111110101000011001111101 *
b11100010001000101110010011000100 #
b11100010001000101110010011000100 )
b11101100100011000101011011011001 "
b11101100100011000101011011011001 (
b10101011011010110001101011010011 '
b11001 &
#26
b10011111000011011001110000111110 !
b10011111000011011001110000111110 ,
b11110111011111111000000011101110 %
b11110111011111111000000011101110 +
b10101010011001010110000001010100 $
b10101010011001010110000001010100 *
b10011111000011011001110000111110 #
b10011111000011011001110000111110 )
b1001111111101000011001110011111 "
b1001111111101000011001110011111 (
b1110111011111110111111101001111 '
b11010 &
#27
b11001111010000101101110010011110 !
b11001111010000101101110010011110 ,
b111111000101100010001101111110 %
b111111000101100010001101111110 +
b111001001000111010111101110010 $
b111001001000111010111101110010 *
b11001111010000101101110010011110 #
b11001111010000101101110010011110 )
b101001110111101111011101010011 "
b101001110111101111011101010011 (
b10111111000101100010000110001011 '
b11011 &
#28
b11000101111101111110110010001011 !
b11000101111101111110110010001011 ,
b1110001110110010011111111100011 %
b1110001110110010011111111100011 +
b10011110101011001001111000111101 $
b10011110101011001001111000111101 *
b1001110010101000000100010011 #
b1001110010101000000100010011 )
b11000101111101111110110010001011 "
b11000101111101111110110010001011 (
b11110001110110010011110110000111 '
b11100 &
#29
b10001111100110000001110000011111 !
b10001111100110000001110000011111 ,
b11010000011011001101000010100000 %
b11010000011011001101000010100000 +
b10001111100110000001110000011111 $
b10001111100110000001110000011111 *
b1001000100100000010010110010001 #
b1001000100100000010010110010001 )
b1110000100111010010001111100001 "
b1110000100111010010001111100001 (
b1010000011011001100111101000011 '
b11101 &
#30
b10000001100010101101000000000011 !
b10000001100010101101000000000011 ,
b10011000011010101001010000110000 %
b10011000011010101001010000110000 +
b10000001100010101101000000000011 $
b10000001100010101101000000000011 *
b11011111111110010001100110111 #
b11011111111110010001100110111 )
b111100111010110110000101111001 "
b111100111010110110000101111001 (
b11000011010101001001010111111 '
b11110 &
#31
b1110111111000100010101111101111 !
b1110111111000100010101111101111 ,
b10100110000111100000010001001100 %
b10100110000111100000010001001100 +
b1110111111000100010101111101111 $
b1110111111000100010101111101111 *
b11011110010111101001101010111100 #
b11011110010111101001101010111100 )
b1001100010100011011100010011 "
b1001100010100011011100010011 (
b100110000111100000001111111011 '
b11111 &
#32
b1001001000000101011100010010 !
b1001001000000101011100010010 ,
b1001000000000000110000110010000 %
b1001000000000000110000110010000 +
b1001001000000101011100010010 $
b1001001000000101011100010010 *
b1000010111011010110010110000101 #
b1000010111011010110010110000101 )
b10010000001101111111000000100000 "
b10010000001101111111000000100000 (
b11001000000000000101111011110111 '
b100000 &
#33
b1100000101011001100100011000 !
b1100000101011001100100011000 ,
b10111111111101001010000001111111 %
b10111111111101001010000001111111 +
b1001000110000011111100010010 $
b1001000110000011111100010010 *
b1011100101111100001111110111001 #
b1011100101111100001111110111001 )
b1100000101011001100100011000 "
b1100000101011001100100011000 (
b111111111101001001111110110011 '
b100001 &
#34
b11110110011000111100000111 !
b11110110011000111100000111 ,
b10101110010000111000010001011100 %
b10101110010000111000010001011100 +
b11110110011000111100000111 $
b11110110011000111100000111 *
b11111001010100110010010011110010 #
b11111001010100110010010011110010 )
b11000010101100101111101010000101 "
b11000010101100101111101010000101 (
b101110010000111000001000101111 '
b100010 &
#35
b1110101010111001011010111101010 !
b1110101010111001011010111101010 ,
b1100010010101111000010111000100 %
b1100010010101111000010111000100 +
b1110101010111001011010111101010 $
b1110101010111001011010111101010 *
b11101010111110101001001011010101 #
b11101010111110101001001011010101 )
b1111011110110101010010111110111 "
b1111011110110101010010111110111 (
b11100010010101111000001001101011 '
b100011 &
#36
b10011110111010100100010000111101 !
b10011110111010100100010000111101 ,
b11001101001110001101111010011010 %
b11001101001110001101111010011010 +
b1101001111011101101100111010011 $
b1101001111011101101100111010011 *
b10011110111010100100010000111101 #
b10011110111010100100010000111101 )
b10110100000111011110000001101000 "
b10110100000111011110000001101000 (
b1001101001110001101110001100111 '
b100100 &
#37
b10110001000001011101100101100 !
b10110001000001011101100101100 ,
b10010001110010011000111000100011 %
b10010001110010011000111000100011 +
b11110011010111011110110011100110 $
b11110011010111011110110011100110 *
b11011000110111101011100110110 #
b11011000110111101011100110110 )
b10110001000001011101100101100 "
b10110001000001011101100101100 (
b10001110010011000110000100011 '
b100101 &
#38
b10000110101001100000000000001101 !
b10000110101001100000000000001101 ,
b1101110110000010100111111011101 %
b1101110110000010100111111011101 +
b10011110111001001001100000111101 $
b10011110111001001001100000111101 *
b111111111010001010001101111111 #
b111111111010001010001101111111 )
b10000110101001100000000000001101 "
b10000110101001100000000000001101 (
b11101110110000010100110110011111 '
b100110 &
#39
b11010111110101100100100010101111 !
b11010111110101100100100010101111 ,
b11111110011010011001111011111100 %
b11111110011010011001111011111100 +
b11010111110101100100100010101111 $
b11010111110101100100100010101111 *
b11101001011001011100100011010010 #
b11101001011001011100100011010010 )
b11001111010110110011110010011110 "
b11001111010110110011110010011110 (
b1111110011010011001110011011011 '
b100111 &
#40
b11100011000010110010100011000110 !
b11100011000010110010100011000110 ,
b10001000000110011011011000010000 %
b10001000000110011011011000010000 +
b11100011000010110010100011000110 $
b11100011000010110010100011000110 *
b1001100100000000010000110011001 #
b1001100100000000010000110011001 )
b10110100011001001011110001101000 "
b10110100011001001011110001101000 (
b1000000110011011010111010111 '
b101000 &
#41
b10101011110110000100100001010111 !
b10101011110110000100100001010111 ,
b1011111011100101001011110111110 %
b1011111011100101001011110111110 +
b11011111000011000010011010111110 $
b11011111000011000010011010111110 *
b10101011110110000100100001010111 #
b10101011110110000100100001010111 )
b101010011000101100000001 "
b101010011000101100000001 (
b11011111011100101001010010010011 '
b101001 &
#42
b1000000010111101001110110000000 !
b1000000010111101001110110000000 ,
b1101010110101111011100011010 %
b1101010110101111011100011010 +
b11110100111111101110110011101001 $
b11110100111111101110110011101001 *
b1000000010111101001110110000000 #
b1000000010111101001110110000000 )
b11010100110111110111001010101001 "
b11010100110111110111001010101001 (
b10001101010110101111010100001111 '
b101010 &
#43
b1000101010101110000001110001010 !
b1000101010101110000001110001010 ,
b111110101110110101010101111101 %
b111110101110110101010101111101 +
b10100110010100011110100001001100 $
b10100110010100011110100001001100 *
b11110001101011110011100011100011 #
b11110001101011110011100011100011 )
b1000101010101110000001110001010 "
b1000101010101110000001110001010 (
b10111110101110110101001101001011 '
b101011 &
#44
b10010100001111000010100100101 !
b10010100001111000010100100101 ,
b110100111110011110110101101001 %
b110100111110011110110101101001 +
b11100011001010000100010011000110 $
b11100011001010000100010011000110 *
b111010001011011111100101110100 #
b111010001011011111100101110100 )
b10010100001111000010100100101 "
b10010100001111000010100100101 (
b10110100111110011110101101000111 '
b101100 &
#45
b1010101100001011110110110101011 !
b1010101100001011110110110101011 ,
b110100001101101011101101101000 %
b110100001101101011101101101000 +
b1010101100001011110110110101011 $
b1010101100001011110110110101011 *
b1010010111000100111100110100101 #
b1010010111000100111100110100101 )
b1000010110110000010100010000 "
b1000010110110000010100010000 (
b10110100001101101011100100000011 '
b101101 &
#46
b10000011000101000001001000000110 !
b10000011000101000001001000000110 ,
b101011010001110111101101010110 %
b101011010001110111101101010110 +
b1101001110111000111100011010 $
b1101001110111000111100011010 *
b10000011000101000001001000000110 #
b10000011000101000001001000000110 )
b1010000001110100101000110100000 "
b1010000001110100101000110100000 (
b10101011010001110111100001111111 '
b101110 &
#47
b101111101001011110011101011111 !
b101111101001011110011101011111 ,
b10010001011100111010011000100010 %
b10010001011100111010011000100010 +
b1111000100100101001010111110001 $
b1111000100100101001010111110001 *
b101111101001011110011101011111 #
b101111101001011110011101011111 )
b11000001110110001111001010000011 "
b11000001110110001111001010000011 (
b10001011100111010010110111011 '
b101111 &
#48
b11111110110000010011011011111101 !
b11111110110000010011011011111101 ,
b110101111100000111111101101011 %
b110101111100000111111101101011 +
b1010101101110010010101110101011 $
b1010101101110010010101110101011 *
b110001100101100110100001100 #
b110001100101100110100001100 )
b11111110110000010011011011111101 "
b11111110110000010011011011111101 (
b10110101111100000111110010110111 '
b110000 &
#49
b1011111111010010110001110111111 !
b1011111111010010110001110111111 ,
b1111101000111001111101111111010 %
b1111101000111001111101111111010 +
b1000111011100011111100010001 $
b1000111011100011111100010001 *
b1011111111010010110001110111111 #
b1011111111010010110001110111111 )
b11100100101000000010101011001001 "
b11100100101000000010101011001001 (
b11111101000111001111100101110011 '
b110001 &
#50
b10111000001010000000010001110000 !
b10111000001010000000010001110000 ,
b1000111011111011101100110001110 %
b1000111011111011101100110001110 +
b10000011011011010111101000000110 $
b10000011011011010111101000000110 *
b10111000001010000000010001110000 #
b10111000001010000000010001110000 )
b10100010010100011001101001000100 "
b10100010010100011001101001000100 (
b11000111011111011101011111101111 '
b110010 &
#51
b10100111000110110100110001001110 !
b10100111000110110100110001001110 ,
b1111110011110011001011111111100 %
b1111110011110011001011111111100 +
b10100111000110110100110001001110 $
b10100111000110110100110001001110 *
b11010010110110001100111010100101 #
b11010010110110001100111010100101 )
b1111011101011000000111111110111 "
b1111011101011000000111111110111 (
b11111110011110011001010000101011 '
b110011 &
#52
b1000000011001101011100010000 !
b1000000011001101011100010000 ,
b10110101000110110100000101 %
b10110101000110110100000101 +
b11010010111100001101111010100101 $
b11010010111100001101111010100101 *
b11101110100011011001110011011101 #
b11101110100011011001110011011101 )
b1000000011001101011100010000 "
b1000000011001101011100010000 (
b10000010110101000110101000100111 '
b110100 &
#53
b1110111101000111111111111101111 !
b1110111101000111111111111101111 ,
b1111000111011000101011111110001 %
b1111000111011000101011111110001 +
b100001010000001110100001000 $
b100001010000001110100001000 *
b11110010111000000101100111100 #
b11110010111000000101100111100 )
b1110111101000111111111111101111 "
b1110111101000111111111111101111 (
b11111000111011000101010111100011 '
b110101 &
#54
b101011100000000100111101010111 !
b101011100000000100111101010111 ,
b101110101101010001010101011101 %
b101110101101010001010101011101 +
b10111000001001111011010001110000 $
b10111000001001111011010001110000 *
b10100111011110010111001001001110 #
b10100111011110010111001001001110 )
b101011100000000100111101010111 "
b101011100000000100111101010111 (
b10101110101101010001001101011111 '
b110110 &
#55
b11111110100101101111010011111101 !
b11111110100101101111010011111101 ,
b10111011101000010000100101110 %
b10111011101000010000100101110 +
b1111011001011110001000111110110 $
b1111011001011110001000111110110 *
b11111110100101101111010011111101 #
b11111110100101101111010011111101 )
b10101100010110110101100001011000 "
b10101100010110110101100001011000 (
b10010111011101000001111010011011 '
b110111 &
#56
b11000000111111010110100010000001 !
b11000000111111010110100010000001 ,
b10011001001111001011010000110010 %
b10011001001111001011010000110010 +
b11001111110000100101110010011111 $
b11001111110000100101110010011111 *
b11000000111111010110100010000001 #
b11000000111111010110100010000001 )
b11001100001001010110001010011000 "
b11001100001001010110001010011000 (
b11001001111001011001110010111 '
b111000 &
#57
b11011010110101101000011010110101 !
b11011010110101101000011010110101 ,
b10101000001010111101000001010000 %
b10101000001010111101000001010000 +
b11011010110101101000011010110101 $
b11011010110101101000011010110101 *
b11000101011010010110110010001010 #
b11000101011010010110110010001010 )
b1111110010100010111110111111100 "
b1111110010100010111110111111100 (
b101000001010111100111001010011 '
b111001 &
#58
b100000101001110101110101000001 !
b100000101001110101110101000001 ,
b1101011011001000010110111010110 %
b1101011011001000010110111010110 +
b101111010011101100000001 $
b101111010011101100000001 *
b100000101001110101110101000001 #
b100000101001110101110101000001 )
b10110010111000010111000001100101 "
b10110010111000010111000001100101 (
b11101011011001000010101011001111 '
b111010 &
#59
b1000000001100011100110110000000 !
b1000000001100011100110110000000 ,
b1100111110010100100011111001111 %
b1100111110010100100011111001111 +
b1011110110100001110000110111101 $
b1011110110100001110000110111101 *
b10111001111011110101010001110011 #
b10111001111011110101010001110011 )
b1000000001100011100110110000000 "
b1000000001100011100110110000000 (
b11100111110010100100010100001011 '
b111011 &
#60
b10100111100001011101101001001111 !
b10100111100001011101101001001111 ,
b11101100100000000101101011011001 %
b11101100100000000101101011011001 +
b11001101111000001010100010011011 $
b11001101111000001010100010011011 *
b11001011000000010011000010010110 #
b11001011000000010011000010010110 )
b10100111100001011101101001001111 "
b10100111100001011101101001001111 (
b1101100100000000101100100000111 '
b111100 &
#61
b1101000000000001000101111010000 !
b1101000000000001000101111010000 ,
b111101001000100110010101111010 %
b111101001000100110010101111010 +
b11011001010111000111110010110010 $
b11011001010111000111110010110010 *
b1101000000000001000101111010000 #
b1101000000000001000101111010000 )
b1000000010100111010011110000000 "
b1000000010100111010011110000000 (
b10111101001000100110001011000011 '
b111101 &
#62
b10110010011111111111100101100 !
b10110010011111111111100101100 ,
b10110101110000100010000001101011 %
b10110101110000100010000001101011 +
b11010111010000010000101010101110 $
b11010111010000010000101010101110 *
b11101011000100001100001011010110 #
b11101011000100001100001011010110 )
b10110010011111111111100101100 "
b10110010011111111111100101100 (
b110101110000100001111000111111 '
b111110 &
#63
b10000110001110100110110000001100 !
b10000110001110100110110000001100 ,
b11100100101000110000100011001001 %
b11100100101000110000100011001001 +
b1100110000111011110100011001 $
b1100110000111011110100011001 *
b11011111101100001111000010111111 #
b11011111101100001111000010111111 )
b10000110001110100110110000001100 "
b10000110001110100110110000001100 (
b1100100101000110000011101111011 '
b111111 &
#64
b1100101011010010011111111001010 !
b1100101011010010011111111001010 ,
b1010101101101100101110110101011 %
b1010101101101100101110110101011 +
b10001011101111101100000000010111 $
b10001011101111101100000000010111 *
b11001001110101111111010010010011 #
b11001001110101111111010010010011 )
b1100101011010010011111111001010 "
b1100101011010010011111111001010 (
b11010101101101100101101001110111 '
b1000000 &
#65
b1000000000101010111111110000000 !
b1000000000101010111111110000000 ,
b10001011110101110001010000010111 %
b10001011110101110001010000010111 +
b110100110111001111111101101001 $
b110100110111001111111101101001 *
b11100100110100000110011011001001 #
b11100100110100000110011011001001 )
b1000000000101010111111110000000 "
b1000000000101010111111110000000 (
b1011110101110001001100110011 '
b1000001 &
#66
b11111010011001101111100011110100 !
b11111010011001101111100011110100 ,
b1100011110001011110111111000111 %
b1100011110001011110111111000111 +
b1010100001100010100100010101 $
b1010100001100010100100010101 *
b10110101110101001010010001101011 #
b10110101110101001010010001101011 )
b11111010011001101111100011110100 "
b11111010011001101111100011110100 (
b11100011110001011110110110101111 '
b1000010 &
#67
b11100000010000000011101011000000 !
b11100000010000000011101011000000 ,
b11011100111001010110011010111001 %
b11011100111001010110011010111001 +
b11000000100010101010010010000001 $
b11000000100010101010010010000001 *
b1110011010101100101100011100 #
b1110011010101100101100011100 )
b11100000010000000011101011000000 "
b11100000010000000011101011000000 (
b1011100111001010110010111101011 '
b1000011 &
#68
b11101111110010101000111011011111 !
b11101111110010101000111011011111 ,
b11101101011011100100000111 %
b11101101011011100100000111 +
b110100100011111010001101101001 $
b110100100011111010001101101001 *
b11011010100000001011010010110101 #
b11011010100000001011010010110101 )
b11101111110010101000111011011111 "
b11101111110010101000111011011111 (
b10000011101101011011011111100111 '
b1000100 &
#69
b111011001110110000111101110110 !
b111011001110110000111101110110 ,
b1111010000100001110000111110100 %
b1111010000100001110000111110100 +
b111011001110110000111101110110 $
b111011001110110000111101110110 *
b11010110010001111111110010101100 #
b11010110010001111111110010101100 )
b11101010110000100000000011010101 "
b11101010110000100000000011010101 (
b11111010000100001101111110100011 '
b1000101 &
#70
b111110100100000001100001111 !
b111110100100000001100001111 ,
b11011001001001101001101010110010 %
b11011001001001101001101010110010 +
b11101110000111111001000011011100 $
b11101110000111111001000011011100 *
b111110100100000001100001111 #
b111110100100000001100001111 )
b1111010100000010101111111110101 "
b1111010100000010101111111110101 (
b1011001001001101001100100011111 '
b1000110 &
#71
b10011000011010111101111000110000 !
b10011000011010111101111000110000 ,
b11101001001110000110001011010010 %
b11101001001110000110001011010010 +
b1100110011010001001100111001100 $
b1100110011010001001100111001100 *
b10011000011010111101111000110000 #
b10011000011010111101111000110000 )
b1110010110011100011001111100101 "
b1110010110011100011001111100101 (
b1101001001110000110000001011011 '
b1000111 &
#72
b1101001101110100111000111010011 !
b1101001101110100111000111010011 ,
b1101011000101010111001111010110 %
b1101011000101010111001111010110 +
b10010000010001100101001000100000 $
b10010000010001100101001000100000 *
b1101001101110100111000111010011 #
b1101001101110100111000111010011 )
b11111111011001001100100011111110 "
b11111111011001001100100011111110 (
b11101011000101010111000101010111 '
b1001000 &
#73
b10000010100101100101000000000101 !
b10000010100101100101000000000101 ,
b11101111010101101100101011011110 %
b11101111010101101100101011011110 +
b10000011000110011010100000000110 $
b10000011000110011010100000000110 *
b10000010100101100101000000000101 #
b10000010100101100101000000000101 )
b1001000010001000010111110010000 "
b1001000010001000010111110010000 (
b1101111010101101100100000010011 '
b1001001 &
#74
b101111101001111101110101011111 !
b101111101001111101110101011111 ,
b11110111010110110010001011101110 %
b11110111010110110010001011101110 +
b10001010011000000100011000010100 $
b10001010011000000100011000010100 *
b101111101001111101110101011111 #
b101111101001111101110101011111 )
b11011000101110100011000010110001 "
b11011000101110100011000010110001 (
b1110111010110110010000010001111 '
b1001010 &
#75
b11001011011000001001100010010110 !
b11001011011000001001100010010110 ,
b1011100000000101111100110111000 %
b1011100000000101111100110111000 +
b11001011011000001001100010010110 $
b11001011011000001001100010010110 *
b1110011110000110011000111100111 #
b1110011110000110011000111100111 )
b11010101001011110101011010101010 "
b11010101001011110101011010101010 (
b11011100000000101111011011001011 '
b1001011 &
#76
b110011100101011100110101100111 !
b110011100101011100110101100111 ,
b10110110001011001000100001101100 %
b10110110001011001000100001101100 +
b110011100101011100110101100111 $
b110011100101011100110101100111 *
b100100000001000010100101001000 #
b100100000001000010100101001000 )
b11001011101100101111000010010111 "
b11001011101100101111000010010111 (
b110110001011001000011011000111 '
b1001100 &
#77
b10101011010001110000101001010110 !
b10101011010001110000101001010110 ,
b1000100111011111100111110001001 %
b1000100111011111100111110001001 +
b11011110110111100111100110111 $
b11011110110111100111100110111 *
b11001011101010100101111010010111 #
b11001011101010100101111010010111 )
b10101011010001110000101001010110 "
b10101011010001110000101001010110 (
b11000100111011111100110010000011 '
b1001101 &
#78
b101101111011000110110101011011 !
b101101111011000110110101011011 ,
b10001101100110101000010000011011 %
b10001101100110101000010000011011 +
b11001100010110110100011010011000 $
b11001100010110110100011010011000 *
b110011101101010011001101100111 #
b110011101101010011001101100111 )
b101101111011000110110101011011 "
b101101111011000110110101011011 (
b1101100110101000001111111111 '
b1001110 &
#79
b101010001111111011110101010100 !
b101010001111111011110101010100 ,
b10110001011011000010101001100010 %
b10110001011011000010101001100010 +
b11001101001101011010011010011010 $
b11001101001101011010011010011010 *
b101010001111111011110101010100 #
b101010001111111011110101010100 )
b11000001011011101010100010000010 "
b11000001011011101010100010000010 (
b110001011011000010100100111011 '
b1001111 &
#80
b11100101100111001101110011001011 !
b11100101100111001101110011001011 ,
b110101000100011111101101101010 %
b110101000100011111101101101010 +
b10101111111100010001010001011111 $
b10101111111100010001010001011111 *
b11100101100111001101110011001011 #
b11100101100111001101110011001011 )
b10111010111100000000010001110101 "
b10111010111100000000010001110101 (
b10110101000100011111100000110111 '
b1010000 &
#81
b1100001001101011001000111000010 !
b1100001001101011001000111000010 ,
b10110101111000101110111001101011 %
b10110101111000101110111001101011 +
b10111101101001001000000001111011 $
b10111101101001001000000001111011 *
b11111001100110010101100111110 #
b11111001100110010101100111110 )
b1100001001101011001000111000010 "
b1100001001101011001000111000010 (
b110101111000101110110011110011 '
b1010001 &
#82
b11001101100110001011100110011 !
b11001101100110001011100110011 ,
b11001000110110111100010010010001 %
b11001000110110111100010010010001 +
b10110101111000111001010001101011 $
b10110101111000111001010001101011 *
b11000010000110010000010010000100 #
b11000010000110010000010010000100 )
b11001101100110001011100110011 "
b11001101100110001011100110011 (
b1001000110110111100001101101111 '
b1010010 &
#83
b11001001011100001000011010010010 !
b11001001011100001000011010010010 ,
b11111111010110101111100011111110 %
b11111111010110101111100011111110 +
b10001010011010101011111000010100 $
b10001010011010101011111000010100 *
b11001001011100001000011010010010 #
b11001001011100001000011010010010 )
b11000100010101110010010010001000 "
b11000100010101110010010010001000 (
b1111111010110101111011110101011 '
b1010011 &
#84
b10010000101110000010100100100 !
b10010000101110000010100100100 ,
b11001101100111001100011010011011 %
b11001101100111001100011010011011 +
b11000011100010110010100010000111 $
b11000011100010110010100010000111 *
b10101010100000111000110001010101 #
b10101010100000111000110001010101 )
b10010000101110000010100100100 "
b10010000101110000010100100100 (
b1001101100111001100010110100111 '
b1010100 &
